MIPS.vcd
$date
	Thu Jun  6 15:42:03 2019
$end
$version
	Icarus Verilog
$end
$timescale
	1s
$end
$scope module main $end
$var wire 5 ! writeRegister [4:0] $end
$var wire 32 " writeData [31:0] $end
$var wire 1 # regWrite $end
$var wire 1 $ memWrite $end
$var wire 1 % memToReg $end
$var wire 2 & branch [1:0] $end
$var wire 32 ' Somador2_Out [31:0] $end
$var wire 32 ( Signal_Extented [31:0] $end
$var wire 32 ) Saida_Somador4 [31:0] $end
$var wire 1 * RegDst $end
$var wire 32 + Read_DataMemory_Out [31:0] $end
$var wire 32 , Read_Data2_Regs_Out [31:0] $end
$var wire 32 - Read_Data1_Regs_Out [31:0] $end
$var wire 32 . PCOut [31:0] $end
$var wire 4 / OP_ALU_IN [3:0] $end
$var wire 32 0 NextPC [31:0] $end
$var wire 1 1 MemRead $end
$var wire 32 2 Left_Shifted2 [31:0] $end
$var wire 32 3 Instrucao [31:0] $end
$var wire 1 4 FlagZero $end
$var wire 1 5 Door_Out $end
$var wire 1 6 ALUSrc $end
$var wire 32 7 ALUResult [31:0] $end
$var wire 2 8 ALUOp [1:0] $end
$var wire 32 9 ALUIn [31:0] $end
$var reg 32 : PCIn [31:0] $end
$var reg 1 ; clk $end
$scope module ADD_1 $end
$var wire 32 < saida [31:0] $end
$var wire 32 = b [31:0] $end
$var wire 32 > a [31:0] $end
$upscope $end
$scope module ALU_1 $end
$var wire 1 4 zero $end
$var wire 4 ? controle [3:0] $end
$var wire 32 @ b [31:0] $end
$var wire 32 A a [31:0] $end
$var reg 32 B saida [31:0] $end
$upscope $end
$scope module Control_ALU $end
$var wire 6 C Func_Code [5:0] $end
$var wire 2 D OpCode_ALU [1:0] $end
$var reg 4 E Controle_ALU [3:0] $end
$upscope $end
$scope module Data_Mem $end
$var wire 32 F Address [31:0] $end
$var wire 1 ; Clk $end
$var wire 32 G WriteData [31:0] $end
$var wire 1 $ MemWrite $end
$var wire 1 1 MemRead $end
$var reg 32 H ReadData [31:0] $end
$upscope $end
$scope module Door1 $end
$var wire 1 4 flag $end
$var wire 2 I branch [1:0] $end
$var reg 1 5 out $end
$upscope $end
$scope module Inst_Mem $end
$var wire 32 J endereco [31:0] $end
$var reg 32 K instrucao [31:0] $end
$upscope $end
$scope module Left_shift $end
$var wire 32 L entrada [31:0] $end
$var reg 32 M saida [31:0] $end
$upscope $end
$scope module Regs $end
$var wire 5 N ReadReg1 [4:0] $end
$var wire 5 O ReadReg2 [4:0] $end
$var wire 1 ; clk $end
$var wire 5 P WriteReg [4:0] $end
$var wire 32 Q WriteData [31:0] $end
$var wire 1 # RegWrite $end
$var reg 32 R ReadData1 [31:0] $end
$var reg 32 S ReadData2 [31:0] $end
$upscope $end
$scope module Signal_Extenteder $end
$var wire 16 T entrada [15:0] $end
$var wire 32 U saida [31:0] $end
$upscope $end
$scope module Soma4 $end
$var wire 32 V saida [31:0] $end
$var wire 32 W a [31:0] $end
$upscope $end
$scope module controll $end
$var wire 6 X Opcode [5:0] $end
$var reg 2 Y ALUOp [1:0] $end
$var reg 1 6 ALUSrc $end
$var reg 2 Z Branch [1:0] $end
$var reg 1 1 MemRead $end
$var reg 1 $ MemWrite $end
$var reg 1 % MemtoReg $end
$var reg 1 * RegDst $end
$var reg 1 # RegWrite $end
$upscope $end
$scope module mux32b_2 $end
$var wire 1 6 controle $end
$var wire 32 [ entrada1 [31:0] $end
$var wire 32 \ entrada2 [31:0] $end
$var wire 32 ] saida [31:0] $end
$upscope $end
$scope module mux32b_3 $end
$var wire 1 % controle $end
$var wire 32 ^ entrada1 [31:0] $end
$var wire 32 _ entrada2 [31:0] $end
$var wire 32 ` saida [31:0] $end
$upscope $end
$scope module mux32b_4 $end
$var wire 1 5 controle $end
$var wire 32 a entrada1 [31:0] $end
$var wire 32 b entrada2 [31:0] $end
$var wire 32 c saida [31:0] $end
$upscope $end
$scope module mux5b_1 $end
$var wire 1 * controle $end
$var wire 5 d entrada1 [4:0] $end
$var wire 5 e entrada2 [4:0] $end
$var wire 5 f saida [4:0] $end
$upscope $end
$scope module pc $end
$var wire 1 ; clk $end
$var wire 32 g entrada [31:0] $end
$var reg 32 h saida [31:0] $end
$upscope $end
$upscope $end
$enddefinitions $end
#0
$dumpvars
bx h
b0 g
bx f
bx e
bx d
bx c
bx b
bx a
bx `
bx _
bx ^
bx ]
bx \
bx [
bx Z
bx Y
bx X
bx W
bx V
bx U
bx T
bx S
bx R
bx Q
bx P
bx O
bx N
bx00 M
bx L
bx K
bx J
bx I
bx H
bx G
bx F
bx E
bx D
bx C
bx B
bx A
bx @
bx ?
bx >
bx00 =
bx <
x;
b0 :
bx 9
bx 8
bx 7
x6
x5
x4
bx 3
bx00 2
x1
bx 0
bx /
bx .
bx -
bx ,
bx +
x*
bx )
bx (
bx '
bx &
x%
x$
x#
bx "
bx !
$end
#1
b11110 "
b11110 Q
b11110 `
04
b11110 7
b11110 B
b11110 F
b11110 ^
b10100 9
b10100 @
b10100 ]
b10100 ,
b10100 G
b10100 S
b10100 [
b1010 -
b1010 A
b1010 R
b10100000010000100 '
b10100000010000100 <
b10100000010000100 b
b100 0
b100 c
b10100000010000000 2
b10100000010000000 =
b10100000010000000 M
05
b0 /
b0 ?
b0 E
b101000000100000 (
b101000000100000 L
b101000000100000 U
b101000000100000 \
b1010 !
b1010 P
b1010 f
1#
06
0$
b10 8
b10 D
b10 Y
0%
01
b0 &
b0 I
b0 Z
1*
b100000 C
b101000000100000 T
b1001 O
b1000 N
b1010 e
b1001 d
b0 X
b1000010010101000000100000 3
b1000010010101000000100000 K
b100 )
b100 >
b100 V
b100 a
b0 .
b0 J
b0 W
b0 h
1;
#2
0;
#3
1;
#4
b100 :
b100 g
0;
#5
b11 "
b11 Q
b11 `
b11 7
b11 B
b11 F
b11 ^
b10 9
b10 @
b10 ]
b10 ,
b10 G
b10 S
b10 [
b1 -
b1 A
b1 R
b11111111111111100100000010000000 2
b11111111111111100100000010000000 =
b11111111111111100100000010000000 M
b11111111111111111001000000100000 (
b11111111111111111001000000100000 L
b11111111111111111001000000100000 U
b11111111111111111001000000100000 \
b10010 !
b10010 P
b10010 f
b1001000000100000 T
b10001 O
b10000 N
b10010 e
b10001 d
b10000100011001000000100000 3
b10000100011001000000100000 K
b1000 0
b1000 c
b11111111111111100100000010001000 '
b11111111111111100100000010001000 <
b11111111111111100100000010001000 b
b1000 )
b1000 >
b1000 V
b1000 a
b100 .
b100 J
b100 W
b100 h
1;
#6
b1000 :
b1000 g
0;
#7
b1 "
b1 Q
b1 `
b100 9
b100 @
b100 ]
b1 7
b1 B
b1 F
b1 ^
b100 ,
b100 G
b100 S
b100 [
b101 -
b101 A
b101 R
b11111111111111101010000010001000 2
b11111111111111101010000010001000 =
b11111111111111101010000010001000 M
b10 /
b10 ?
b10 E
b11111111111111111010100000100010 (
b11111111111111111010100000100010 L
b11111111111111111010100000100010 U
b11111111111111111010100000100010 \
b10101 !
b10101 P
b10101 f
b100010 C
b1010100000100010 T
b10011 O
b10100 N
b10101 e
b10011 d
b10100100111010100000100010 3
b10100100111010100000100010 K
b1100 0
b1100 c
b11111111111111101010000010010100 '
b11111111111111101010000010010100 <
b11111111111111101010000010010100 b
b1100 )
b1100 >
b1100 V
b1100 a
b1000 .
b1000 J
b1000 W
b1000 h
1;
#8
b1100 :
b1100 g
0;
#9
b1010 "
b1010 Q
b1010 `
b1010 7
b1010 B
b1010 F
b1010 ^
b101000 9
b101000 @
b101000 ]
b101000 ,
b101000 G
b101000 S
b101000 [
b110010 -
b110010 A
b110010 R
b11010000010001000 2
b11010000010001000 =
b11010000010001000 M
b110100000100010 (
b110100000100010 L
b110100000100010 U
b110100000100010 \
b1101 !
b1101 P
b1101 f
b110100000100010 T
b1011 O
b1100 N
b1101 e
b1011 d
b1100010110110100000100010 3
b1100010110110100000100010 K
b10000 0
b10000 c
b11010000010011000 '
b11010000010011000 <
b11010000010011000 b
b10000 )
b10000 >
b10000 V
b10000 a
b1100 .
b1100 J
b1100 W
b1100 h
1;
#10
b10000 :
b10000 g
0;
#11
b1011 "
b1011 Q
b1011 `
b1010 9
b1010 @
b1010 ]
b1011 7
b1011 B
b1011 F
b1011 ^
b1010 ,
b1010 G
b1010 S
b1010 [
b11 -
b11 A
b11 R
b11111111111111101100000010010100 2
b11111111111111101100000010010100 =
b11111111111111101100000010010100 M
b101 /
b101 ?
b101 E
b11111111111111111011000000100101 (
b11111111111111111011000000100101 L
b11111111111111111011000000100101 U
b11111111111111111011000000100101 \
b10110 !
b10110 P
b10110 f
b100101 C
b1011000000100101 T
b1101 O
b10010 N
b10110 e
b1101 d
b10010011011011000000100101 3
b10010011011011000000100101 K
b10100 0
b10100 c
b11111111111111101100000010101000 '
b11111111111111101100000010101000 <
b11111111111111101100000010101000 b
b10100 )
b10100 >
b10100 V
b10100 a
b10000 .
b10000 J
b10000 W
b10000 h
1;
#12
b10100 :
b10100 g
0;
#13
b11111 "
b11111 Q
b11111 `
b11111 7
b11111 B
b11111 F
b11111 ^
b1 9
b1 @
b1 ]
b1 ,
b1 G
b1 S
b1 [
b11110 -
b11110 A
b11110 R
b11100000010010100 2
b11100000010010100 =
b11100000010010100 M
b111000000100101 (
b111000000100101 L
b111000000100101 U
b111000000100101 \
b1110 !
b1110 P
b1110 f
b111000000100101 T
b10101 O
b1010 N
b1110 e
b10101 d
b1010101010111000000100101 3
b1010101010111000000100101 K
b11000 0
b11000 c
b11100000010101100 '
b11100000010101100 <
b11100000010101100 b
b11000 )
b11000 >
b11000 V
b11000 a
b10100 .
b10100 J
b10100 W
b10100 h
1;
#14
b11000 :
b11000 g
0;
#15
b10 "
b10 Q
b10 `
b1010 9
b1010 @
b1010 ]
04
b10 7
b10 B
b10 F
b10 ^
b1010 ,
b1010 G
b1010 S
b1010 [
b11 -
b11 A
b11 R
b11111111111111101110000010010000 2
b11111111111111101110000010010000 =
b11111111111111101110000010010000 M
b100 /
b100 ?
b100 E
b11111111111111111011100000100100 (
b11111111111111111011100000100100 L
b11111111111111111011100000100100 U
b11111111111111111011100000100100 \
b10111 !
b10111 P
b10111 f
b100100 C
b1011100000100100 T
b1101 O
b10010 N
b10111 e
b1101 d
b10010011011011100000100100 3
b10010011011011100000100100 K
b11100 0
b11100 c
b11111111111111101110000010101100 '
b11111111111111101110000010101100 <
b11111111111111101110000010101100 b
b11100 )
b11100 >
b11100 V
b11100 a
b11000 .
b11000 J
b11000 W
b11000 h
1;
#16
b11100 :
b11100 g
0;
#17
b0 "
b0 Q
b0 `
14
b0 7
b0 B
b0 F
b0 ^
b1 9
b1 @
b1 ]
b1 ,
b1 G
b1 S
b1 [
b11110 -
b11110 A
b11110 R
b11110000010010000 2
b11110000010010000 =
b11110000010010000 M
b111100000100100 (
b111100000100100 L
b111100000100100 U
b111100000100100 \
b1111 !
b1111 P
b1111 f
b111100000100100 T
b10101 O
b1010 N
b1111 e
b10101 d
b1010101010111100000100100 3
b1010101010111100000100100 K
b100000 0
b100000 c
b11110000010110000 '
b11110000010110000 <
b11110000010110000 b
b100000 )
b100000 >
b100000 V
b100000 a
b11100 .
b11100 J
b11100 W
b11100 h
1;
#18
b100000 :
b100000 g
0;
#19
b11111111111111111111111111110100 "
b11111111111111111111111111110100 Q
b11111111111111111111111111110100 `
b1010 9
b1010 @
b1010 ]
04
b11111111111111111111111111110100 7
b11111111111111111111111111110100 B
b11111111111111111111111111110100 F
b11111111111111111111111111110100 ^
b1010 ,
b1010 G
b1010 S
b1010 [
b11 -
b11 A
b11 R
b10000000010011100 2
b10000000010011100 =
b10000000010011100 M
b110 /
b110 ?
b110 E
b100000000100111 (
b100000000100111 L
b100000000100111 U
b100000000100111 \
b1000 !
b1000 P
b1000 f
b100111 C
b100000000100111 T
b1101 O
b10010 N
b1000 e
b1101 d
b10010011010100000000100111 3
b10010011010100000000100111 K
b100100 0
b100100 c
b10000000011000000 '
b10000000011000000 <
b10000000011000000 b
b100100 )
b100100 >
b100100 V
b100100 a
b100000 .
b100000 J
b100000 W
b100000 h
1;
#20
b100100 :
b100100 g
0;
#21
b11111111111111111111111111100000 "
b11111111111111111111111111100000 Q
b11111111111111111111111111100000 `
b11111111111111111111111111100000 7
b11111111111111111111111111100000 B
b11111111111111111111111111100000 F
b11111111111111111111111111100000 ^
b1 9
b1 @
b1 ]
b1 ,
b1 G
b1 S
b1 [
b11110 -
b11110 A
b11110 R
b11111111111111100000000010011100 2
b11111111111111100000000010011100 =
b11111111111111100000000010011100 M
b11111111111111111000000000100111 (
b11111111111111111000000000100111 L
b11111111111111111000000000100111 U
b11111111111111111000000000100111 \
b10000 !
b10000 P
b10000 f
b1000000000100111 T
b10101 O
b1010 N
b10000 e
b10101 d
b1010101011000000000100111 3
b1010101011000000000100111 K
b101000 0
b101000 c
b11111111111111100000000011000100 '
b11111111111111100000000011000100 <
b11111111111111100000000011000100 b
b101000 )
b101000 >
b101000 V
b101000 a
b100100 .
b100100 J
b100100 W
b100100 h
1;
#22
b101000 :
b101000 g
0;
#23
b0 "
b0 Q
b0 `
b1010 9
b1010 @
b1010 ]
14
b0 7
b0 B
b0 F
b0 ^
b1010 ,
b1010 G
b1010 S
b1010 [
b11111 -
b11111 A
b11111 R
b10010000010101000 2
b10010000010101000 =
b10010000010101000 M
b1000 /
b1000 ?
b1000 E
b100100000101010 (
b100100000101010 L
b100100000101010 U
b100100000101010 \
b1001 !
b1001 P
b1001 f
b101010 C
b100100000101010 T
b1101 O
b1110 N
b1001 e
b1101 d
b1110011010100100000101010 3
b1110011010100100000101010 K
b101100 0
b101100 c
b10010000011010100 '
b10010000011010100 <
b10010000011010100 b
b101100 )
b101100 >
b101100 V
b101100 a
b101000 .
b101000 J
b101000 W
b101000 h
1;
#24
b101100 :
b101100 g
0;
#25
b1 "
b1 Q
b1 `
04
b1 7
b1 B
b1 F
b1 ^
b11111 9
b11111 @
b11111 ]
b11111 ,
b11111 G
b11111 S
b11111 [
b1010 -
b1010 A
b1010 R
b11111111111111100010000010101000 2
b11111111111111100010000010101000 =
b11111111111111100010000010101000 M
b11111111111111111000100000101010 (
b11111111111111111000100000101010 L
b11111111111111111000100000101010 U
b11111111111111111000100000101010 \
b10001 !
b10001 P
b10001 f
b1000100000101010 T
b1110 O
b1101 N
b10001 e
b1110 d
b1101011101000100000101010 3
b1101011101000100000101010 K
b110000 0
b110000 c
b11111111111111100010000011011000 '
b11111111111111100010000011011000 <
b11111111111111100010000011011000 b
b110000 )
b110000 >
b110000 V
b110000 a
b101100 .
b101100 J
b101100 W
b101100 h
1;
#26
b110000 :
b110000 g
0;
#27
b111 7
b111 B
b111 F
b111 ^
b11110 ,
b11110 G
b11110 S
b11110 [
b11 -
b11 A
b11 R
b10000 2
b10000 =
b10000 M
b100 9
b100 @
b100 ]
bx "
bx Q
bx `
b0 /
b0 ?
b0 E
b100 (
b100 L
b100 U
b100 \
b1010 !
b1010 P
b1010 f
16
b0 8
b0 D
b0 Y
1%
11
0*
b100 C
b100 T
b1010 O
b10010 N
b0 e
b1010 d
b100011 X
b10001110010010100000000000000100 3
b10001110010010100000000000000100 K
b110100 0
b110100 c
b1000100 '
b1000100 <
b1000100 b
b110100 )
b110100 >
b110100 V
b110100 a
b110000 .
b110000 J
b110000 W
b110000 h
1;
#28
b1010011010 "
b1010011010 Q
b1010011010 `
b1010011010 +
b1010011010 H
b1010011010 _
b110100 :
b110100 g
0;
#29
b1001 7
b1001 B
b1001 F
b1001 ^
b101000 ,
b101000 G
b101000 S
b101000 [
b1 -
b1 A
b1 R
b1000 9
b1000 @
b1000 ]
b100000 2
b100000 =
b100000 M
b1000 (
b1000 L
b1000 U
b1000 \
b1011 !
b1011 P
b1011 f
b1000 C
b1000 T
b1011 O
b10001 N
b1011 d
b10001110001010110000000000001000 3
b10001110001010110000000000001000 K
b111000 0
b111000 c
b1011000 '
b1011000 <
b1011000 b
b111000 )
b111000 >
b111000 V
b111000 a
b110100 .
b110100 J
b110100 W
b110100 h
1;
#30
b1000101011 "
b1000101011 Q
b1000101011 `
b1000101011 +
b1000101011 H
b1000101011 _
b111000 :
b111000 g
0;
#31
b111 7
b111 B
b111 F
b111 ^
b110010 ,
b110010 G
b110010 S
b110010 [
b11 -
b11 A
b11 R
b100 9
b100 @
b100 ]
b10000 2
b10000 =
b10000 M
b0x000x0xx11 "
b0x000x0xx11 Q
b0x000x0xx11 `
b100 (
b100 L
b100 U
b100 \
b0xx00 !
b0xx00 P
b0xx00 f
0#
1$
x%
01
x*
b100 C
b100 T
b1100 O
b10010 N
b1100 d
b101011 X
b10101110010011000000000000000100 3
b10101110010011000000000000000100 K
b111100 0
b111100 c
b1001100 '
b1001100 <
b1001100 b
b111100 )
b111100 >
b111100 V
b111100 a
b111000 .
b111000 J
b111000 W
b111000 h
1;
#32
b111100 :
b111100 g
0;
#33
b0x000x010x1 "
b0x000x010x1 Q
b0x000x010x1 `
b1001 7
b1001 B
b1001 F
b1001 ^
b1010 ,
b1010 G
b1010 S
b1010 [
b1 -
b1 A
b1 R
b1000 9
b1000 @
b1000 ]
b100000 2
b100000 =
b100000 M
b1000 (
b1000 L
b1000 U
b1000 \
b0xx0x !
b0xx0x P
b0xx0x f
b1000 C
b1000 T
b1101 O
b10001 N
b1101 d
b10101110001011010000000000001000 3
b10101110001011010000000000001000 K
b1000000 0
b1000000 c
b1100000 '
b1100000 <
b1100000 b
b1000000 )
b1000000 >
b1000000 V
b1000000 a
b111100 .
b111100 J
b111100 W
b111100 h
1;
#34
b1000000 :
b1000000 g
0;
#35
b1001 7
b1001 B
b1001 F
b1001 ^
b11 -
b11 A
b11 R
b10000000010011000 2
b10000000010011000 =
b10000000010011000 M
b1010 9
b1010 @
b1010 ]
b1001 "
b1001 Q
b1001 `
b111 /
b111 ?
b111 E
b100000000100110 (
b100000000100110 L
b100000000100110 U
b100000000100110 \
b1000 !
b1000 P
b1000 f
1#
06
0$
b10 8
b10 D
b10 Y
0%
1*
b100110 C
b100000000100110 T
b10010 N
b1000 e
b0 X
b10010011010100000000100110 3
b10010011010100000000100110 K
b1000100 0
b1000100 c
b10000000011011100 '
b10000000011011100 <
b10000000011011100 b
b1000100 )
b1000100 >
b1000100 V
b1000100 a
b1000000 .
b1000000 J
b1000000 W
b1000000 h
1;
#36
b1000100 :
b1000100 g
0;
#37
b1010011011 "
b1010011011 Q
b1010011011 `
b1010011011 7
b1010011011 B
b1010011011 F
b1010011011 ^
b1 9
b1 @
b1 ]
b1 ,
b1 G
b1 S
b1 [
b1010011010 -
b1010011010 A
b1010011010 R
b11111111111111100000000010011000 2
b11111111111111100000000010011000 =
b11111111111111100000000010011000 M
b11111111111111111000000000100110 (
b11111111111111111000000000100110 L
b11111111111111111000000000100110 U
b11111111111111111000000000100110 \
b10000 !
b10000 P
b10000 f
b1000000000100110 T
b10101 O
b1010 N
b10000 e
b10101 d
b1010101011000000000100110 3
b1010101011000000000100110 K
b1001000 0
b1001000 c
b11111111111111100000000011100000 '
b11111111111111100000000011100000 <
b11111111111111100000000011100000 b
b1001000 )
b1001000 >
b1001000 V
b1001000 a
b1000100 .
b1000100 J
b1000100 W
b1000100 h
1;
#38
b1001000 :
b1001000 g
0;
#39
b100 7
b100 B
b100 F
b100 ^
b101 -
b101 A
b101 R
b100 2
b100 =
b100 M
b0x000x0xxxx "
b0x000x0xxxx Q
b0x000x0xxxx `
15
b10 /
b10 ?
b10 E
b1 (
b1 L
b1 U
b1 \
bx0x0x !
bx0x0x P
bx0x0x f
0#
b1 8
b1 D
b1 Y
x%
b1 &
b1 I
b1 Z
x*
b1 C
b1 T
b10100 N
b0 e
b101 X
b10110100101010000000000000001 3
b10110100101010000000000000001 K
b1010000 0
b1010000 c
b1010000 '
b1010000 <
b1010000 b
b1001100 )
b1001100 >
b1001100 V
b1001100 a
b1001000 .
b1001000 J
b1001000 W
b1001000 h
1;
#40
b1010000 :
b1010000 g
0;
#41
b0x000x0x0xx "
b0x000x0x0xx Q
b0x000x0x0xx `
14
b0 7
b0 B
b0 F
b0 ^
b1 -
b1 A
b1 R
b11111111111111111111111111000000 2
b11111111111111111111111111000000 =
b11111111111111111111111111000000 M
15
b11111111111111111111111111110000 (
b11111111111111111111111111110000 L
b11111111111111111111111111110000 U
b11111111111111111111111111110000 \
b1x1x1 !
b1x1x1 P
b1x1x1 f
b11 &
b11 I
b11 Z
b110000 C
b1111111111110000 T
b10001 N
b11111 e
b100 X
b10010001101011111111111110000 3
b10010001101011111111111110000 K
b10100 0
b10100 c
b10100 '
b10100 <
b10100 b
b1010100 )
b1010100 >
b1010100 V
b1010100 a
b1010000 .
b1010000 J
b1010000 W
b1010000 h
1;
#42
b10100 :
b10100 g
0;
#43
04
b1010011011 7
b1010011011 B
b1010011011 F
b1010011011 ^
b1010011010 -
b1010011010 A
b1010011010 R
b11100000010010100 2
b11100000010010100 =
b11100000010010100 M
b1010011011 "
b1010011011 Q
b1010011011 `
05
b101 /
b101 ?
b101 E
b111000000100101 (
b111000000100101 L
b111000000100101 U
b111000000100101 \
b1110 !
b1110 P
b1110 f
1#
b10 8
b10 D
b10 Y
0%
b0 &
b0 I
b0 Z
1*
b100101 C
b111000000100101 T
b1010 N
b1110 e
b0 X
b1010101010111000000100101 3
b1010101010111000000100101 K
b11000 0
b11000 c
b11100000010101100 '
b11100000010101100 <
b11100000010101100 b
b11000 )
b11000 >
b11000 V
b11000 a
b10100 .
b10100 J
b10100 W
b10100 h
1;
#44
b11000 :
b11000 g
0;
#45
b10 "
b10 Q
b10 `
b1010 9
b1010 @
b1010 ]
04
b10 7
b10 B
b10 F
b10 ^
b1010 ,
b1010 G
b1010 S
b1010 [
b11 -
b11 A
b11 R
b11111111111111101110000010010000 2
b11111111111111101110000010010000 =
b11111111111111101110000010010000 M
b100 /
b100 ?
b100 E
b11111111111111111011100000100100 (
b11111111111111111011100000100100 L
b11111111111111111011100000100100 U
b11111111111111111011100000100100 \
b10111 !
b10111 P
b10111 f
b100100 C
b1011100000100100 T
b1101 O
b10010 N
b10111 e
b1101 d
b10010011011011100000100100 3
b10010011011011100000100100 K
b11100 0
b11100 c
b11111111111111101110000010101100 '
b11111111111111101110000010101100 <
b11111111111111101110000010101100 b
b11100 )
b11100 >
b11100 V
b11100 a
b11000 .
b11000 J
b11000 W
b11000 h
1;
#46
b11100 :
b11100 g
0;
#47
b0 "
b0 Q
b0 `
14
b0 7
b0 B
b0 F
b0 ^
b1 9
b1 @
b1 ]
b1 ,
b1 G
b1 S
b1 [
b1010011010 -
b1010011010 A
b1010011010 R
b11110000010010000 2
b11110000010010000 =
b11110000010010000 M
b111100000100100 (
b111100000100100 L
b111100000100100 U
b111100000100100 \
b1111 !
b1111 P
b1111 f
b111100000100100 T
b10101 O
b1010 N
b1111 e
b10101 d
b1010101010111100000100100 3
b1010101010111100000100100 K
b100000 0
b100000 c
b11110000010110000 '
b11110000010110000 <
b11110000010110000 b
b100000 )
b100000 >
b100000 V
b100000 a
b11100 .
b11100 J
b11100 W
b11100 h
1;
#48
b100000 :
b100000 g
0;
#49
b11111111111111111111111111110100 "
b11111111111111111111111111110100 Q
b11111111111111111111111111110100 `
b1010 9
b1010 @
b1010 ]
04
b11111111111111111111111111110100 7
b11111111111111111111111111110100 B
b11111111111111111111111111110100 F
b11111111111111111111111111110100 ^
b1010 ,
b1010 G
b1010 S
b1010 [
b11 -
b11 A
b11 R
b10000000010011100 2
b10000000010011100 =
b10000000010011100 M
b110 /
b110 ?
b110 E
b100000000100111 (
b100000000100111 L
b100000000100111 U
b100000000100111 \
b1000 !
b1000 P
b1000 f
b100111 C
b100000000100111 T
b1101 O
b10010 N
b1000 e
b1101 d
b10010011010100000000100111 3
b10010011010100000000100111 K
b100100 0
b100100 c
b10000000011000000 '
b10000000011000000 <
b10000000011000000 b
b100100 )
b100100 >
b100100 V
b100100 a
b100000 .
b100000 J
b100000 W
b100000 h
1;
#50
b100100 :
b100100 g
0;
